# Blender MTL File: 'Cyprys_House.blend'
# Material Count: 9

newmtl foundation_brown_brick
Ns 225.000000
Ka 1.000000 1.000000 1.000000
Kd 0.273830 0.242849 0.149908
Ks 0.500000 0.500000 0.500000
Ke 0.000000 0.000000 0.000000
Ni 1.000000
d 1.000000
illum 2

newmtl glass_window
Ns 225.000000
Ka 1.000000 1.000000 1.000000
Kd 0.297307 0.655212 0.800000
Ks 0.500000 0.500000 0.500000
Ke 0.000000 0.000000 0.000000
Ni 1.000000
d 1.000000
illum 2

newmtl metal_dark_brown
Ns 225.000000
Ka 1.000000 1.000000 1.000000
Kd 0.110688 0.110688 0.110688
Ks 0.500000 0.500000 0.500000
Ke 0.000000 0.000000 0.000000
Ni 1.000000
d 1.000000
illum 2

newmtl metal_grey
Ns 225.000000
Ka 1.000000 1.000000 1.000000
Kd 0.190177 0.190177 0.190177
Ks 0.500000 0.500000 0.500000
Ke 0.000000 0.000000 0.000000
Ni 1.000000
d 1.000000
illum 2

newmtl plaster_light_brown
Ns 225.000000
Ka 1.000000 1.000000 1.000000
Kd 0.800000 0.800000 0.800000
Ks 0.500000 0.500000 0.500000
Ke 0.000000 0.000000 0.000000
Ni 1.000000
d 1.000000
illum 2

newmtl plaster_sand
Ns 225.000000
Ka 1.000000 1.000000 1.000000
Kd 0.800000 0.800000 0.800000
Ks 0.500000 0.500000 0.500000
Ke 0.000000 0.000000 0.000000
Ni 1.000000
d 1.000000
illum 2

newmtl plate_grey
Ns 225.000000
Ka 1.000000 1.000000 1.000000
Kd 0.201900 0.201900 0.201900
Ks 0.500000 0.500000 0.500000
Ke 0.000000 0.000000 0.000000
Ni 1.000000
d 1.000000
illum 2

newmtl wood_balls_brown
Ns 225.000000
Ka 1.000000 1.000000 1.000000
Kd 0.486898 0.413487 0.209819
Ks 0.500000 0.500000 0.500000
Ke 0.000000 0.000000 0.000000
Ni 1.000000
d 1.000000
illum 2

newmtl wood_brown
Ns 225.000000
Ka 1.000000 1.000000 1.000000
Kd 0.800000 0.594399 0.266667
Ks 0.500000 0.500000 0.500000
Ke 0.000000 0.000000 0.000000
Ni 1.000000
d 1.000000
illum 2
