# Blender v2.81 (sub 16) OBJ File: ''
# www.blender.org
o Spruce
v -1.444030 50.185356 1.021160
v -1.734420 50.763680 1.305186
v -0.126518 51.623520 1.198320
v 0.163869 51.045197 0.914290
v -1.405245 50.174023 1.513525
v 0.202656 51.033863 1.406659
v -0.573210 50.136185 0.061151
v -0.982820 50.692635 -0.087294
v -0.126623 51.666122 1.199309
v 0.282991 51.109673 1.347751
v -0.981826 50.128742 0.338707
v -0.125629 51.102226 1.625310
v -0.603203 50.069160 2.151641
v -0.452064 50.590759 2.603908
v -0.126739 51.713444 1.200407
v -0.277878 51.191849 0.748140
v -0.121700 50.067776 2.262142
v 0.203624 51.190468 0.858642
v 0.861139 50.226017 1.921409
v 1.277515 50.794128 1.863634
v -0.126843 51.756054 1.201396
v -0.543218 51.187946 1.259171
v 1.077848 50.236851 1.477590
v -0.326509 51.198780 0.815352
v 0.963164 50.250156 0.703011
v 1.119074 50.811478 0.302934
v -0.126947 51.798649 1.202385
v -0.282857 51.237328 1.602462
v 0.678601 50.258831 0.299275
v -0.567424 51.246002 1.198729
v -1.000034 49.097347 -0.018878
v -1.471148 49.751160 -0.043811
v -0.124422 50.768173 1.178465
v 0.346692 50.114365 1.203398
v -1.374291 49.086655 0.402381
v -0.027565 50.103668 1.624657
v 0.497368 49.169064 -0.306372
v 0.293651 49.857559 -0.673118
v -0.124303 50.719585 1.177337
v 0.079419 50.031078 1.544080
v -0.052220 49.170612 -0.431228
v -0.470173 50.032627 1.419227
v 1.392926 49.047874 1.412652
v 1.733587 49.727768 1.144801
v -0.124184 50.670979 1.176209
v -0.464841 49.991089 1.444063
v 1.390039 49.060947 0.849212
v -0.467731 50.004162 0.880619
v -1.438987 49.101761 2.158326
v -1.426948 49.791332 2.575921
v -0.124051 50.616985 1.174955
v -0.136091 49.927410 0.757361
v -1.024025 49.093925 2.539623
v 0.278874 49.919575 1.138661
v 0.125581 49.095951 2.835655
v 0.472386 49.800850 3.016984
v -0.123932 50.568382 1.173827
v -0.470741 49.863480 0.992495
v 0.662429 49.101246 2.664173
v 0.066114 49.868771 0.821013
v 1.962664 47.550041 1.643391
v 2.320450 48.445908 1.341393
v -0.120958 49.354954 1.145660
v -0.478748 48.459087 1.447662
v 2.025215 47.566525 0.939744
v -0.416193 48.475571 0.744011
v 0.419712 47.504311 3.121996
v 0.888270 48.377506 3.321487
v -0.121108 49.415897 1.147075
v -0.589666 48.542702 0.947590
v 1.062119 47.512714 2.827803
v 0.052737 48.551109 0.653394
v 1.107693 48.048473 -0.919448
v 0.856842 48.980122 -1.220943
v -0.121274 49.483601 1.148647
v 0.129577 48.551941 1.450142
v 0.454901 48.053143 -1.189904
v -0.523218 48.556625 1.179688
v -1.489190 47.586067 -0.313022
v -2.031681 48.436348 -0.245643
v -0.121423 49.544533 1.150061
v 0.421069 48.694252 1.082681
v -1.900526 47.571728 0.261349
v 0.009732 48.679916 1.657053
v -2.181940 47.790604 1.706600
v -2.328536 48.667297 2.187976
v -0.121572 49.605453 1.151475
v 0.025024 48.728760 0.670099
v -1.876731 47.776566 2.343751
v 0.330229 48.714722 1.307253
v 0.907695 46.089241 3.723856
v 1.528548 47.261749 3.889208
v -0.118921 48.523716 1.126365
v -0.739774 47.351212 0.961014
v 1.712945 46.102222 3.249621
v 0.065476 47.364197 0.486778
v -1.824374 45.763817 3.032273
v -1.703139 46.875546 3.765012
v -0.118724 48.443127 1.124494
v -0.239955 47.331390 0.391753
v -1.020630 45.754707 3.509150
v 0.563790 47.322289 0.868629
v -2.933236 46.423164 -0.307004
v -3.333761 47.636898 0.085454
v -0.118526 48.362545 1.122624
v 0.281999 47.148808 0.730166
v -3.215717 46.401802 0.583636
v -0.000483 47.127453 1.620806
v 2.487268 45.832928 0.128246
v 2.667203 47.007141 -0.485264
v -0.118307 48.272995 1.120545
v -0.298241 47.098774 1.734055
v 2.026638 45.850677 -0.684773
v -0.758872 47.116516 0.921036
v 0.363056 45.881104 -1.736840
v -0.105871 47.063980 -2.147293
v -0.118109 48.192394 1.118674
v 0.350818 47.009518 1.529128
v -0.571546 45.878872 -1.739574
v -0.583785 47.007290 1.526394
v -1.735580 44.311123 -2.514925
v -2.397393 45.821632 -2.431698
v -0.114276 46.628345 1.082368
v 0.547537 45.117825 0.999142
v -2.701607 44.294098 -1.883382
v -0.418483 45.100807 1.630686
v 2.201634 44.557934 -2.211595
v 1.804395 46.092571 -2.673811
v -0.114520 46.727879 1.084679
v 0.282718 45.193230 1.546895
v 1.174301 44.567623 -2.737747
v -0.744612 45.202934 1.020746
v -3.957475 44.391441 1.516760
v -4.124038 45.886692 2.197258
v -0.114791 46.838470 1.087246
v 0.051772 45.343227 0.406749
v -3.644047 44.366428 2.627384
v 0.365198 45.318214 1.517369
v -0.507492 44.417637 4.888552
v 0.080809 45.922295 5.229854
v -0.115035 46.938007 1.089557
v -0.703336 45.433350 0.748255
v 0.645534 44.421703 4.835011
v 0.449686 45.437416 0.694716
v 3.131558 44.661304 3.271372
v 3.647159 46.189838 2.918766
v -0.115279 47.037540 1.091867
v -0.630880 45.509007 1.444479
v 3.640222 44.686596 2.235534
v -0.122216 45.534298 0.408635
v 4.266926 42.604164 -1.407049
v 4.118783 44.545013 -2.170412
v -0.111489 45.491108 1.055970
v 0.036653 43.550255 1.819340
v 3.384228 42.629044 -2.571694
v -0.846048 43.575127 0.654691
v 4.032143 42.237034 3.625917
v 4.710744 44.162601 3.175060
v -0.111180 45.365078 1.053045
v -0.789781 43.439514 1.503902
v 4.627482 42.269470 2.291488
v -0.194442 43.471951 0.169473
v -1.742995 42.055321 5.607692
v -1.110013 43.956863 6.203526
v -0.110871 45.239044 1.050119
v -0.743853 43.337502 0.454285
v -0.308014 42.052395 5.885180
v 0.691132 43.334576 0.731770
v -2.459738 42.346577 -3.478261
v -3.251349 44.270695 -3.271580
v -0.110528 45.099014 1.046869
v 0.681087 43.174904 0.840185
v -3.639503 42.323677 -2.615822
v -0.498675 43.151989 1.702628
v -5.035898 41.931786 0.798500
v -5.360551 43.829197 1.614603
v -0.110219 44.972984 1.043943
v 0.214431 43.075577 0.227837
v -4.870847 41.898491 2.250332
v 0.379485 43.042278 1.679672
v -3.484109 39.454750 5.588402
v -2.949561 41.676956 6.454002
v -0.105671 43.116993 1.000861
v -0.640215 40.894772 0.135258
v -1.967758 39.440197 6.375358
v 0.876136 40.880219 0.922214
v -5.961042 39.932789 0.303375
v -6.322689 42.167542 1.224441
v -0.106032 43.264305 1.004280
v 0.255611 41.029556 0.083217
v -5.893641 39.893337 2.010050
v 0.323016 40.990108 1.789889
v 3.324397 39.738144 5.534202
v 4.269844 41.982380 5.327403
v -0.106433 43.427998 1.008080
v -1.051880 41.183762 1.214879
v 4.529510 39.769203 4.323593
v 0.153233 41.214813 0.004270
v 5.165042 40.044743 -1.357920
v 5.124660 42.302982 -2.291711
v -0.106794 43.575314 1.011500
v -0.066409 41.317078 1.945295
v 4.258532 40.076118 -2.805706
v -0.972923 41.348465 0.497511
v 0.428774 40.406475 -4.866177
v -0.454262 42.660522 -5.201960
v -0.107155 43.722633 1.014919
v 0.775885 41.468590 1.350706
v -1.276953 40.400059 -4.769843
v -0.929842 41.462166 1.447033
v 2.791053 38.039654 -4.846643
v 2.043226 40.528740 -5.540812
v -0.102196 41.699364 0.967954
v 0.645634 39.210270 1.662119
v 1.005619 38.048981 -5.436840
v -1.139807 39.219589 1.071928
v 6.220397 37.599010 0.657175
v 6.576889 40.084167 -0.309014
v -0.101799 41.537205 0.964190
v -0.458289 39.052040 1.930382
v 5.877177 37.641064 -1.191236
v -0.801514 39.094105 0.081964
v 1.549698 37.284607 6.970085
v 2.621859 39.745518 7.146350
v -0.101401 41.375057 0.960426
v -1.173562 38.914143 0.784161
v 3.272770 37.306305 6.217247
v 0.549507 38.935841 0.031319
v -5.843396 37.583492 -2.135057
v -6.565111 40.047348 -1.331802
v -0.100960 41.194885 0.956243
v 0.620752 38.731030 0.152985
v -6.463963 37.540779 -0.360438
v 0.000188 38.688313 1.927608
v -5.445949 37.037830 4.275359
v -5.227776 39.479271 5.383698
v -0.100562 41.032730 0.952479
v -0.318735 38.591286 -0.155859
v -4.211306 37.007942 5.693444
v 0.915910 38.561394 1.262230
v 6.328988 34.415936 3.266540
v 7.093550 37.105385 2.457945
v -0.094796 38.679859 0.897863
v -0.859358 35.990414 1.706457
v 6.770257 34.463112 1.280925
v -0.418089 36.037594 -0.279157
v 0.993201 34.729305 7.746507
v 2.095724 37.415100 7.952522
v -0.095226 38.855297 0.901935
v -1.197749 36.169510 0.695920
v 2.937150 34.748005 7.146250
v 0.746207 36.188206 0.095664
v 4.172365 34.908031 -4.541694
v 3.576671 37.592876 -5.494706
v -0.095704 39.050243 0.906460
v 0.499986 36.365395 1.859476
v 2.409544 34.927296 -5.557414
v -1.262833 36.384651 0.843755
v -4.329669 35.056465 -4.543964
v -5.460147 37.707962 -4.140119
v -0.096134 39.225681 0.910533
v 1.034348 36.574188 0.506685
v -5.718491 35.018559 -3.057585
v -0.354478 36.536282 1.993067
v -6.925772 35.246094 1.989005
v -7.110029 37.895641 3.179558
v -0.096564 39.401123 0.914605
v 0.087694 36.751575 -0.275954
v -6.292236 35.202774 3.921973
v 0.721230 36.708252 1.657013
v -2.033981 31.706944 -7.670499
v -3.456472 35.034767 -7.730771
v -0.089771 36.629288 0.850264
v 1.332718 33.301464 0.910532
v -4.387546 31.679626 -6.742024
v -1.020844 33.274143 1.839011
v 6.260657 31.231567 -4.939615
v 5.744954 34.572823 -6.232524
v -0.089236 36.411110 0.845199
v 0.426466 33.069862 2.138116
v 4.312575 31.264271 -6.553916
v -1.521618 33.102562 0.523810
v 6.880113 30.777817 5.607208
v 8.088728 34.110886 4.878210
v -0.088701 36.192932 0.840135
v -1.297317 32.859871 1.569134
v 8.011454 30.833113 3.344671
v -0.165978 32.915154 -0.693407
v -8.610104 30.952538 2.569054
v -8.714926 34.260921 4.033661
v -0.088107 35.950512 0.834507
v 0.016713 32.642120 -0.630104
v -7.721455 30.899736 4.937504
v 0.905368 32.589321 1.738348
v 1.470710 27.313480 -0.121660
v -3.198093 26.099567 -3.154938
v -4.518568 29.958685 -2.163895
v -0.076276 31.123058 0.722449
v -4.785099 26.038414 -0.687752
v -0.116296 27.252317 2.345526
v -9.062258 29.542763 -5.096912
v 1.389165 27.626549 1.613502
v 1.751722 26.496998 -4.149685
v 0.267533 30.524588 -4.750186
v -0.077467 31.608997 0.733729
v -1.272060 26.493990 -4.339324
v -1.634623 27.623541 1.423863
v 0.617869 30.215452 -10.331409
v -1.577708 27.900082 1.481262
v 3.202036 26.721378 4.725639
v 4.469946 30.776833 3.827675
v -0.078200 31.908030 0.740671
v 4.914567 26.767305 2.219365
v 0.134820 27.946005 -1.025016
v 9.097302 30.421562 6.983015
v 0.158924 28.358477 -1.074797
v -5.231443 27.072969 1.034078
v -5.208215 31.086330 2.756623
v -0.079207 32.319202 0.750215
v -4.106310 27.009857 3.871504
v 1.284059 28.295364 1.762633
v -10.441007 30.631773 4.821493
v -1.608299 28.710238 -0.388361
v -1.572783 27.046677 5.325412
v -0.046221 31.063007 6.194049
v -0.080032 32.655617 0.758024
v 1.491444 27.054575 5.308668
v 1.455932 28.718132 -0.405107
v -0.013479 30.242453 11.798830
v -0.304455 28.937998 2.525659
v 4.805943 27.479513 -0.175733
v 4.781445 31.557144 -1.805445
v -0.080765 32.954655 0.764966
v 3.384983 27.539177 -2.896080
v -1.725419 28.997662 -0.194686
v 9.775650 30.938501 -4.427726
v -2.174870 24.466351 0.284207
v 0.828667 22.586792 6.099666
v 2.786600 27.203756 6.205980
v -0.071081 29.003294 0.673244
v 3.949736 22.631529 4.502170
v 0.946196 24.511076 -1.313285
v 5.720753 26.288311 11.912867
v 1.159489 24.174875 -1.186378
v -5.405333 22.411282 -1.243841
v -6.316185 26.972527 0.610382
v -0.070244 28.661715 0.665315
v -5.414137 22.330032 2.255466
v 1.150688 24.093626 2.312926
v -12.736540 26.168819 0.575572
v 1.918846 23.705044 0.827042
v -0.470471 22.445967 -5.384011
v -2.342753 27.068331 -5.253792
v -0.069302 28.277435 0.656395
v -3.722611 22.408781 -4.125416
v -1.333298 23.667852 2.085639
v -4.663574 26.752237 -11.260013
v -0.995080 23.293779 -1.191365
v -4.771910 21.885532 4.203884
v -3.662006 26.456776 5.779041
v -0.068151 27.807762 0.645492
v -1.924385 21.827799 6.182172
v 1.852449 23.236048 0.786920
v -7.316257 25.990929 11.025344
v -1.179798 22.897652 2.187190
v 5.371643 21.459639 2.617186
v 6.166429 26.086897 1.046456
v -0.067314 27.466177 0.637563
v 5.615879 21.540352 -0.834026
v -0.935558 22.978363 -1.264025
v 12.529609 25.590223 1.485147
v 0.793590 22.496355 2.285923
v 4.271646 21.174881 -3.055065
v 3.243413 25.643055 -4.457459
v -0.065953 26.911108 0.624679
v 1.467253 21.210606 -4.890134
v -2.010811 22.532080 0.450853
v 6.624735 25.231331 -9.632895
v -2.230010 17.337965 0.672570
v 2.186179 15.581584 6.254786
v 4.147383 20.595018 5.828272
v -0.054599 22.278233 0.517137
v 5.155701 15.642945 3.924850
v 0.739519 17.399326 -1.657365
v 8.441042 19.870581 11.281501
v -1.404757 17.842535 -1.381982
v -4.255785 16.051668 5.398231
v -2.768865 21.187000 6.982755
v -0.056131 22.903416 0.531649
v -0.660227 16.025545 6.903239
v 2.190801 17.816412 0.123026
v -5.541412 20.461229 13.593962
v 2.141403 18.175421 0.045104
v -2.282615 16.869713 -5.976618
v -4.266653 22.033339 -5.189702
v -0.057074 23.288137 0.540580
v -5.420938 16.786919 -3.653015
v -0.996923 18.092627 2.368709
v -8.556056 21.780087 -10.992120
v -1.053759 18.619871 2.442504
v 6.407264 17.072645 2.081439
v 7.040955 22.332447 0.209009
v -0.058371 23.817139 0.552859
v 6.236213 17.163292 -1.841671
v -1.224810 18.710518 -1.480605
v 14.278678 21.851124 -0.117689
v 1.377934 19.106052 2.374233
v 3.768724 17.305759 -4.673073
v 2.215273 22.524426 -6.142404
v -0.059431 24.249956 0.562906
v 0.036970 17.326122 -5.944273
v -2.353824 19.126415 1.103036
v 4.550090 21.801111 -13.008137
v 1.017300 19.575697 -1.700636
v -6.309409 17.560341 -0.658558
v -7.031194 22.704517 1.563006
v -0.060374 24.634682 0.571837
v -5.729394 17.471106 3.246926
v 1.597319 19.486462 2.204846
v -14.196704 21.772768 2.605905
v -0.116145 14.695911 -2.270603
v -6.585680 12.425272 2.471521
v -6.204758 18.017206 4.980171
v -0.049485 20.191360 0.468695
v -4.031537 12.351466 5.920730
v 2.437998 14.622106 1.178606
v -12.532470 16.926149 9.642514
v 2.318824 14.206841 1.452592
v 1.030596 12.248100 -6.532256
v -1.274081 17.895813 -7.138356
v -0.048460 19.773195 0.458989
v -3.198616 12.221746 -5.843479
v -1.910392 14.180488 2.141372
v -2.536280 17.107700 -14.918593
v 0.027479 13.650626 2.760541
v 7.017410 12.053721 -1.403169
v 6.603774 17.769720 -3.514089
v -0.047307 19.302765 0.448069
v 4.846467 12.133713 -5.078377
v -2.143467 13.730618 -0.914671
v 13.384129 17.328852 -7.528835
v 1.871565 13.194380 -1.173324
v -5.434252 11.698757 -4.689305
v -6.997664 17.291201 -2.911282
v -0.045898 18.727793 0.434722
v -7.255142 11.582318 -0.856187
v 0.050681 13.077938 2.659795
v -14.075079 16.941908 -6.283941
v -2.255054 12.785585 -0.729560
v -1.501037 10.834864 7.228270
v 0.672606 16.440027 7.996606
v -0.044873 18.309626 0.425015
v 2.717167 10.854368 6.833374
v 1.963154 12.805091 -1.124459
v 1.402506 15.647085 15.754035
v -1.989942 12.236337 1.662124
v 5.120959 10.402006 4.755312
v 6.722770 15.871684 3.352076
v -0.043208 17.630108 0.409242
v 6.776975 10.493180 1.002391
v -0.333926 12.327511 -2.090798
v 13.637636 15.156951 6.385970
v -0.841390 7.807836 -1.988337
v -5.482492 5.936642 3.884616
v -4.447656 11.153488 5.888277
v -0.031729 12.946568 0.300524
v -2.358027 5.887349 6.338025
v 2.283075 7.758543 0.465073
v -8.965062 10.368963 11.625537
v 1.475721 8.284318 -1.648225
v -6.205585 6.582870 -2.903730
v -7.342101 11.972548 -0.879124
v -0.033342 13.604536 0.315798
v -6.846513 6.487269 1.147060
v 0.834796 8.188718 2.402568
v -14.807882 11.386833 -2.074201
v 0.909917 8.566405 2.340172
v 5.931671 7.209413 -3.715430
v 4.744188 12.705178 -5.437251
v -0.034334 14.009430 0.325196
v 2.771054 7.240400 -6.343397
v -2.250706 8.597392 -0.287797
v 9.598298 12.455439 -11.278172
v -2.328856 9.154700 -0.316285
v -0.130127 7.329520 7.186213
v 2.056467 12.816345 7.476576
v -0.035699 14.566166 0.338120
v 3.839087 7.366044 6.031857
v 1.640354 9.191223 -1.470639
v 4.187497 12.118778 14.781971
v -1.641200 9.602590 2.162210
v 6.120034 7.533684 2.804643
v 7.347485 13.039916 0.959618
v -0.036815 15.021674 0.348693
v 6.487840 7.630491 -1.326967
v -1.273393 9.699396 -1.969407
v 14.932585 12.108350 1.613025
v 2.444036 10.040239 0.784135
v -0.494762 8.125129 -6.485988
v -2.833834 13.591117 -6.559229
v -0.037807 15.426573 0.358092
v -4.343790 8.079299 -4.918030
v -1.404993 9.994410 2.352100
v -5.709631 12.811828 -13.641500
v 2.228968 5.846030 -0.526124
v -3.386405 4.018040 -5.090654
v -5.369069 9.047840 -4.092436
v -0.026467 10.799401 0.250683
v -5.795273 3.942647 -2.097030
v -0.179900 5.770637 2.467500
v -10.861418 8.271362 -8.531490
v -0.451848 5.405255 2.419225
v 6.134085 3.573383 -0.544358
v 6.240529 8.669782 -2.577936
v -0.025549 10.425014 0.241992
v 4.578075 3.650954 -4.050211
v -2.007858 5.482822 -1.086628
v 12.676795 7.887734 -5.451865
v -2.114317 4.974785 0.722551
v 3.046806 3.337952 5.800851
v 4.886416 8.434214 5.064027
v -0.024517 10.003828 0.232216
v 5.738394 3.407530 3.087797
v 0.577270 5.044359 -1.990503
v 9.892368 7.838525 10.015083
v 1.701866 4.473719 1.417676
v 3.062001 3.246948 -5.732996
v 1.271070 8.309689 -6.584203
v -0.023256 9.489045 0.220266
v -0.672257 3.233632 -6.441010
v -2.032394 4.460408 0.709661
v 2.580058 8.105778 -13.484342
v 0.374222 4.203511 -2.061740
v -6.381629 2.547861 0.364234
v -6.450527 7.527234 2.519617
v -0.022338 9.114657 0.211576
v -5.082721 2.468338 3.927184
v 1.673136 4.123989 1.501211
v -13.016946 6.905582 4.899601
v -2.664991 30.286049 8.848654
v -1.535328 33.585220 9.818617
v -0.087572 35.732330 0.829443
v -1.217236 32.433155 -0.140519
v -0.166836 30.282848 9.250235
v 1.280925 32.429955 0.261062
v -1.646801 3.738218 -1.298644
v -2.746510 1.983428 5.528512
v -1.067179 6.824900 6.693142
v -0.020847 8.506275 0.197453
v 0.880451 1.978783 6.111547
v 1.980160 3.733573 -0.715609
v -2.139328 6.075565 13.356838
v -0.480771 22.657475 0.840834
v 0.004470 22.653769 1.051654
v -0.127914 52.192902 1.211537
v -0.743130 0.697141 0.565207
v 0.102904 0.690682 0.932776
v 0.429693 22.662117 0.736954
v 0.844286 0.705235 0.384092
v 0.369673 22.674168 0.211435
v 0.739642 0.726248 -0.532167
v -0.115569 22.677874 0.000615
v -0.106392 0.732706 -0.899735
v -0.540791 22.669525 0.315315
v -0.847774 0.718153 -0.351051
v -0.873449 0.025240 -1.179535
v 0.585011 0.032676 -1.345933
v -1.458457 -0.007437 0.166403
v 1.458457 0.007437 -0.166403
v 0.873449 -0.025240 1.179535
v -0.585011 -0.032676 1.345933
v 1.023149 -0.557327 -0.769571
v 2.329994 -0.300587 -2.902207
v 2.454075 -0.703043 -2.393931
v 2.787469 -0.321076 -1.971249
v 2.687732 0.172617 -2.489477
v 5.038907 -1.291742 -2.766840
v -0.024469 -0.695992 3.089600
v 0.328291 -0.328459 3.566517
v -1.087200 -1.801990 4.763381
v -0.600954 -0.317213 2.983947
v -0.274214 0.137121 3.504043
v 0.145633 -0.606342 1.249330
v -1.164537 -0.568483 -0.519967
v -3.352971 -0.304938 -0.899003
v -3.037356 -0.684963 -1.336816
v -2.939504 -0.281843 -1.850265
v -3.280445 0.189270 -1.421248
v -4.957618 -1.585903 -2.193333
v 1.189013 -0.550175 0.503447
v -1.039451 -0.561538 0.757701
v -0.145580 -0.511610 -1.298832
v 0.001797 -0.733137 -0.017018
vt 1.000000 0.996531
vt 0.500000 0.012400
vt 1.000000 0.012400
vt 0.000001 0.996531
vt 0.500000 0.996531
vt 0.500000 0.996531
vt 1.000000 0.012400
vt 1.000000 0.996531
vt 0.000001 0.996531
vt 0.500000 0.012400
vt 1.000000 0.996531
vt 0.500000 0.012400
vt 1.000000 0.012400
vt 0.000001 0.996531
vt 0.500000 0.996531
vt 0.500000 0.996531
vt 1.000000 0.012400
vt 1.000000 0.996531
vt 0.000000 0.012400
vt 0.500000 0.012400
vt 0.500000 0.996531
vt 1.000000 0.012400
vt 1.000000 0.996531
vt 0.000000 0.012400
vt 0.500000 0.012400
vt 1.000000 0.996531
vt 0.500000 0.012400
vt 1.000000 0.012400
vt 0.000001 0.996531
vt 0.500000 0.996531
vt 0.500000 0.996531
vt 1.000000 0.012400
vt 1.000000 0.996531
vt 0.000000 0.012400
vt 0.500000 0.012400
vt 1.000000 0.996531
vt 0.500000 0.012400
vt 1.000000 0.012400
vt 0.500000 0.996531
vt 0.000000 0.012400
vt 1.000000 0.996531
vt 0.500000 0.012400
vt 1.000000 0.012400
vt 0.000001 0.996531
vt 0.500000 0.996531
vt 0.500000 0.996531
vt 1.000000 0.012400
vt 1.000000 0.996531
vt 0.000000 0.012400
vt 0.500000 0.012400
vt 1.000000 0.996531
vt 0.500000 0.012400
vt 1.000000 0.012400
vt 0.000001 0.996531
vt 0.500000 0.996531
vt 1.000000 0.996531
vt 0.500000 0.012400
vt 1.000000 0.012400
vt 0.000001 0.996531
vt 0.500000 0.996531
vt 0.500000 0.996531
vt 1.000000 0.012400
vt 1.000000 0.996531
vt 0.000000 0.012400
vt 0.500000 0.012400
vt 0.500000 0.996531
vt 1.000000 0.012400
vt 1.000000 0.996531
vt 0.000000 0.012400
vt 0.500000 0.012400
vt 1.000000 0.996531
vt 0.500000 0.012400
vt 1.000000 0.012400
vt 0.000001 0.996531
vt 0.500000 0.996531
vt 1.000000 0.996531
vt 0.500000 0.012400
vt 1.000000 0.012400
vt 0.000001 0.996531
vt 0.500000 0.996531
vt 0.500000 0.996531
vt 1.000000 0.012400
vt 1.000000 0.996531
vt 0.000000 0.012400
vt 0.500000 0.012400
vt 0.500000 0.996531
vt 1.000000 0.012400
vt 1.000000 0.996531
vt 0.000000 0.012400
vt 0.500000 0.012400
vt 1.000000 0.996531
vt 0.500000 0.012400
vt 1.000000 0.012400
vt 0.000001 0.996531
vt 0.500000 0.996531
vt 1.000000 0.996531
vt 0.500000 0.012400
vt 1.000000 0.012400
vt 0.000001 0.996531
vt 0.500000 0.996531
vt 0.500000 0.996531
vt 1.000000 0.012400
vt 1.000000 0.996531
vt 0.000000 0.012400
vt 0.500000 0.012400
vt 0.500000 0.996531
vt 1.000000 0.012400
vt 1.000000 0.996531
vt 0.000000 0.012400
vt 0.500000 0.012400
vt 1.000000 0.996531
vt 0.500000 0.012400
vt 1.000000 0.012400
vt 0.500000 0.996531
vt 0.000000 0.012400
vt 0.500000 0.996531
vt 1.000000 0.012400
vt 1.000000 0.996531
vt 0.000000 0.012400
vt 0.500000 0.012400
vt 0.500000 0.996531
vt 1.000000 0.012400
vt 1.000000 0.996531
vt 0.000000 0.012400
vt 0.500000 0.012400
vt 1.000000 0.996531
vt 0.500000 0.012400
vt 1.000000 0.012400
vt 0.000001 0.996531
vt 0.500000 0.996531
vt 0.500000 0.996531
vt 1.000000 0.012400
vt 1.000000 0.996531
vt 0.000000 0.012400
vt 0.500000 0.012400
vt 1.000000 0.996531
vt 0.500000 0.012400
vt 1.000000 0.012400
vt 0.000001 0.996531
vt 0.500000 0.996531
vt 0.500000 0.996531
vt 1.000000 0.012400
vt 1.000000 0.996531
vt 0.000001 0.996531
vt 0.500000 0.012400
vt 1.000000 0.996531
vt 0.500000 0.012400
vt 1.000000 0.012400
vt 0.000001 0.996531
vt 0.500000 0.996531
vt 1.000000 0.996531
vt 0.500000 0.012400
vt 1.000000 0.012400
vt 0.500000 0.996531
vt 0.000000 0.012400
vt 1.000000 0.996531
vt 0.500000 0.012400
vt 1.000000 0.012400
vt 0.000001 0.996531
vt 0.500000 0.996531
vt 0.500000 0.996531
vt 1.000000 0.012400
vt 1.000000 0.996531
vt 0.000001 0.996531
vt 0.500000 0.012400
vt 1.000000 0.996531
vt 0.500000 0.012400
vt 1.000000 0.012400
vt 0.500000 0.996531
vt 0.000000 0.012400
vt 0.500000 0.996531
vt 1.000000 0.012400
vt 1.000000 0.996531
vt 0.000000 0.012400
vt 0.500000 0.012400
vt 0.500000 0.996531
vt 1.000000 0.012400
vt 1.000000 0.996531
vt 0.000000 0.012400
vt 0.500000 0.012400
vt 1.000000 0.996531
vt 0.500000 0.012400
vt 1.000000 0.012400
vt 0.500000 0.996531
vt 0.000000 0.012400
vt 0.500000 0.996531
vt 1.000000 0.012400
vt 1.000000 0.996531
vt 0.000000 0.012400
vt 0.500000 0.012400
vt 0.500000 0.996531
vt 1.000000 0.012400
vt 1.000000 0.996531
vt 0.000000 0.012400
vt 0.500000 0.012400
vt 0.500000 0.996531
vt 1.000000 0.012400
vt 1.000000 0.996531
vt 0.000000 0.012400
vt 0.500000 0.012400
vt 0.500000 0.996531
vt 1.000000 0.012400
vt 1.000000 0.996531
vt 0.000000 0.012400
vt 0.500000 0.012400
vt 1.000000 0.996531
vt 0.500000 0.012400
vt 1.000000 0.012400
vt 0.000001 0.996531
vt 0.500000 0.996531
vt 0.500000 0.996531
vt 1.000000 0.012400
vt 1.000000 0.996531
vt 0.000001 0.996531
vt 0.500000 0.012400
vt 0.500000 0.996531
vt 1.000000 0.012400
vt 1.000000 0.996531
vt 0.000001 0.996531
vt 0.500000 0.012400
vt 0.500000 0.996531
vt 1.000000 0.012400
vt 1.000000 0.996531
vt 0.000000 0.012400
vt 0.500000 0.012400
vt 0.500000 0.996531
vt 1.000000 0.012400
vt 1.000000 0.996531
vt 0.000001 0.996531
vt 0.500000 0.012400
vt 0.500000 0.996531
vt 1.000000 0.012400
vt 1.000000 0.996531
vt 0.000000 0.012400
vt 0.500000 0.012400
vt 0.500000 0.996531
vt 1.000000 0.012400
vt 1.000000 0.996531
vt 0.000000 0.012400
vt 0.500000 0.012400
vt 0.500000 0.996531
vt 1.000000 0.012400
vt 1.000000 0.996531
vt 0.000000 0.012400
vt 0.500000 0.012400
vt 1.000000 0.012400
vt 0.500000 0.577794
vt 0.500000 0.012400
vt 0.000000 0.012400
vt 0.000000 0.577794
vt 0.500000 1.010132
vt 1.000000 0.577794
vt 1.000000 0.012400
vt 0.500000 0.577794
vt 0.500000 0.012400
vt 0.000000 0.012400
vt 0.000000 0.577794
vt 0.500000 1.010132
vt 1.000000 0.577794
vt 1.000000 0.012400
vt 0.500000 0.577794
vt 0.500000 0.012400
vt 0.000000 0.012400
vt 0.000000 0.577794
vt 0.500000 1.010132
vt 1.000000 0.577794
vt 1.000000 0.012400
vt 0.500000 0.577794
vt 0.500000 0.012400
vt 0.000000 0.012400
vt 0.000000 0.577794
vt 0.500000 1.010132
vt 1.000000 0.577794
vt 1.000000 0.012400
vt 0.500000 0.577794
vt 0.500000 0.012400
vt 0.000000 0.012400
vt 0.000000 0.577794
vt 0.500000 1.010132
vt 1.000000 0.577794
vt 1.000000 0.012400
vt 0.500000 0.577794
vt 0.500000 0.012400
vt 0.000000 0.012400
vt 0.000000 0.577794
vt 0.500000 1.010132
vt 1.000000 0.577794
vt 1.000000 0.012400
vt 0.500000 0.577794
vt 0.500000 0.012400
vt 0.000000 0.012400
vt 0.000000 0.577794
vt 0.500000 1.010132
vt 1.000000 0.577794
vt 1.000000 0.012400
vt 0.500000 0.577794
vt 0.500000 0.012400
vt 0.000000 0.012400
vt 0.000000 0.577794
vt 0.500000 1.010132
vt 1.000000 0.577794
vt 1.000000 0.012400
vt 0.500000 0.577794
vt 0.500000 0.012400
vt 0.000000 0.012400
vt 0.000000 0.577794
vt 0.500000 1.010132
vt 1.000000 0.577794
vt 1.000000 0.012400
vt 0.500000 0.577794
vt 0.500000 0.012400
vt 0.000000 0.012400
vt 0.000000 0.577794
vt 0.500000 1.010132
vt 1.000000 0.577794
vt 1.000000 0.012400
vt 0.500000 0.577794
vt 0.500000 0.012400
vt 0.000000 0.012400
vt 0.000000 0.577794
vt 0.500000 1.010132
vt 1.000000 0.577794
vt 1.000000 0.012400
vt 0.500000 0.577794
vt 0.500000 0.012400
vt 0.000000 0.012400
vt 0.000000 0.577794
vt 0.500000 1.010132
vt 1.000000 0.577794
vt 1.000000 0.012400
vt 0.500000 0.577794
vt 0.500000 0.012400
vt 0.000000 0.012400
vt 0.000000 0.577794
vt 0.500000 1.010132
vt 1.000000 0.577794
vt 1.000000 0.012400
vt 0.500000 0.577794
vt 0.500000 0.012400
vt 0.000000 0.012400
vt 0.000000 0.577794
vt 0.500000 1.010132
vt 1.000000 0.577794
vt 1.000000 0.012400
vt 0.500000 0.577794
vt 0.500000 0.012400
vt 0.000000 0.012400
vt 0.000000 0.577794
vt 0.500000 1.010132
vt 1.000000 0.577794
vt 1.000000 0.012400
vt 0.500000 0.577794
vt 0.500000 0.012400
vt 0.000000 0.012400
vt 0.000000 0.577794
vt 0.500000 1.010132
vt 1.000000 0.577794
vt 1.000000 0.012400
vt 0.500000 0.577794
vt 0.500000 0.012400
vt 0.000000 0.012400
vt 0.000000 0.577794
vt 0.500000 1.010132
vt 1.000000 0.577794
vt 1.000000 0.012400
vt 0.500000 0.577794
vt 0.500000 0.012400
vt 0.000000 0.012400
vt 0.000000 0.577794
vt 0.500000 1.010132
vt 1.000000 0.577794
vt 1.000000 0.012400
vt 0.500000 0.577794
vt 0.500000 0.012400
vt 0.000000 0.012400
vt 0.000000 0.577794
vt 0.500000 1.010132
vt 1.000000 0.577794
vt 1.000000 0.012400
vt 0.500000 0.577794
vt 0.500000 0.012400
vt 0.000000 0.012400
vt 0.000000 0.577794
vt 0.500000 1.010132
vt 1.000000 0.577794
vt 1.000000 0.012400
vt 0.500000 0.577794
vt 0.500000 0.012400
vt 0.000000 0.012400
vt 0.000000 0.577794
vt 0.500000 1.010132
vt 1.000000 0.577794
vt 1.000000 0.012400
vt 0.500000 0.577794
vt 0.500000 0.012400
vt 0.000000 0.012400
vt 0.000000 0.577794
vt 0.500000 1.010132
vt 1.000000 0.577794
vt 1.000000 0.012400
vt 0.500000 0.577794
vt 0.500000 0.012400
vt 0.000000 0.012400
vt 0.000000 0.577794
vt 0.500000 1.010132
vt 1.000000 0.577794
vt 1.000000 0.012400
vt 0.500000 0.577794
vt 0.500000 0.012400
vt 0.000000 0.012400
vt 0.000000 0.577794
vt 0.500000 1.010132
vt 1.000000 0.577794
vt 1.000000 0.012400
vt 0.500000 0.577794
vt 0.500000 0.012400
vt 0.000000 0.012400
vt 0.000000 0.577794
vt 0.500000 1.010132
vt 1.000000 0.577794
vt 1.000000 0.012400
vt 0.500000 0.577794
vt 0.500000 0.012400
vt 0.000000 0.012400
vt 0.000000 0.577794
vt 0.500000 1.010132
vt 1.000000 0.577794
vt 1.000000 0.012400
vt 0.500000 0.577794
vt 0.500000 0.012400
vt 0.000000 0.012400
vt 0.000000 0.577794
vt 0.500000 1.010132
vt 1.000000 0.577794
vt 1.000000 0.012400
vt 0.500000 0.577794
vt 0.500000 0.012400
vt 0.000000 0.012400
vt 0.000000 0.577794
vt 0.500000 1.010132
vt 1.000000 0.577794
vt 1.000000 0.012400
vt 0.500000 0.577794
vt 0.500000 0.012400
vt 0.000000 0.012400
vt 0.000000 0.577794
vt 0.500000 1.010132
vt 1.000000 0.577794
vt 1.000000 0.012400
vt 0.500000 0.577794
vt 0.500000 0.012400
vt 0.000000 0.012400
vt 0.000000 0.577794
vt 0.500000 1.010132
vt 1.000000 0.577794
vt 1.000000 0.012400
vt 0.500000 0.577794
vt 0.500000 0.012400
vt 0.000000 0.012400
vt 0.000000 0.577794
vt 0.500000 1.010132
vt 1.000000 0.577794
vt 1.000000 0.012400
vt 0.500000 0.577794
vt 0.500000 0.012400
vt 0.000000 0.012400
vt 0.000000 0.577794
vt 0.500000 1.010132
vt 1.000000 0.577794
vt 1.000000 0.012400
vt 0.500000 0.577794
vt 0.500000 0.012400
vt 0.000000 0.012400
vt 0.000000 0.577794
vt 0.500000 1.010132
vt 1.000000 0.577794
vt 1.000000 0.012400
vt 0.500000 0.577794
vt 0.500000 0.012400
vt 0.000000 0.012400
vt 0.000000 0.577794
vt 0.500000 1.010132
vt 1.000000 0.577794
vt 1.000000 0.012400
vt 0.500000 0.577794
vt 0.500000 0.012400
vt 0.000000 0.012400
vt 0.000000 0.577794
vt 0.500000 1.010132
vt 1.000000 0.577794
vt 0.500000 0.996531
vt 1.000000 0.012400
vt 1.000000 0.996531
vt 0.000000 0.012400
vt 0.500000 0.012400
vt 1.000000 0.012400
vt 0.500000 0.577794
vt 0.500000 0.012400
vt 0.000000 0.012400
vt 0.000000 0.577794
vt 0.500000 1.010132
vt 1.000000 0.577794
vt 0.000000 0.012400
vt 0.000000 0.012400
vt 0.000000 0.012400
vt 0.000001 0.996531
vt 0.000001 0.996531
vt 0.000000 0.012400
vt 0.000001 0.996531
vt 0.000001 0.996531
vt 0.000000 0.012400
vt 0.000001 0.996531
vt 0.000000 0.012400
vt 0.000000 0.012400
vt 0.000001 0.996531
vt 0.000001 0.996531
vt 0.000000 0.012400
vt 0.000000 0.012400
vt 0.000001 0.996531
vt 0.000001 0.996531
vt 0.000000 0.012400
vt 0.000000 0.012400
vt 0.000001 0.996531
vt 0.000001 0.996531
vt 0.000001 0.996531
vt 0.000001 0.996531
vt 0.000001 0.996531
vt 0.000000 0.012400
vt 0.000001 0.996531
vt 0.000000 0.012400
vt 0.000000 0.012400
vt 0.000000 0.012400
vt 0.000001 0.996531
vt 0.000000 0.012400
vt 0.000000 0.012400
vt 0.000001 0.996531
vt 0.000001 0.996531
vt 0.000001 0.996531
vt 0.000001 0.996531
vt 0.000001 0.996531
vt 0.000001 0.996531
vt 0.000001 0.996531
vt 0.000001 0.996531
vt 0.000000 0.012400
vt 0.000000 0.012400
vt 0.000000 0.012400
vt 0.000001 0.996531
vt 0.000000 0.012400
vt 0.000001 0.996531
vt 0.000001 0.996531
vt 0.000001 0.996531
vt 0.000001 0.996531
vt 1.333332 0.860277
vt 1.666665 0.860277
vt 1.089126 4.018418
vt 1.666667 -1.487882
vt 1.333333 -1.487882
vt 2.000000 0.860277
vt -0.000000 0.860277
vt -0.333333 -1.487882
vt 0.000000 -1.487882
vt 0.333335 0.860277
vt 0.333333 -1.487882
vt 0.666668 0.860277
vt 0.666667 -1.487882
vt 1.000000 0.860277
vt 1.000000 -1.487882
vt 0.833333 -1.564002
vt 0.500000 -1.564002
vt 1.166667 -1.564002
vt 0.166667 -1.564002
vt -0.166667 -1.564002
vt -0.500000 -1.564002
vt -0.666667 -1.487882
vt 1.500000 -1.564002
vt 0.750000 0.019041
vt 1.000000 0.144310
vt 1.000000 0.019041
vt 0.000000 0.019041
vt 0.253021 0.144310
vt 0.250000 0.019041
vt 0.500000 0.144310
vt 0.746979 0.144310
vt 0.500000 0.000392
vt 0.499997 0.267706
vt 0.000000 0.144310
vt 1.000000 0.144310
vt 0.746979 0.144310
vt 0.499997 0.267706
vt 0.253021 0.144310
vt 0.000000 0.144310
vt 0.500000 0.144310
vt 0.250000 0.019041
vt 0.500000 0.000392
vt 0.750000 0.019041
vt 0.000000 0.019041
vt 1.000000 0.019041
vt 1.000000 0.019041
vt 0.746979 0.144310
vt 1.000000 0.144310
vt 0.000000 0.019041
vt 0.253021 0.144310
vt 0.250000 0.019041
vt 0.750000 0.019041
vt 0.500000 0.144310
vt 0.500000 0.000392
vt 0.499997 0.267706
vt 0.000000 0.144310
vt 0.000000 -1.621878
vt 1.333333 -1.621878
vt 0.666667 -1.621878
vt 0.333333 -1.625758
vt -0.333333 -1.625758
vt -0.666667 -1.621878
vt 1.000000 -1.625758
vt 0.105323 -1.642417
vt -0.333335 0.860277
vn -0.2371 0.3298 -0.9138
vn -0.4678 0.8820 0.0572
vn -0.0900 0.2868 0.9538
vn -0.3101 0.8460 -0.4338
vn 0.6666 0.3098 -0.6780
vn -0.8833 0.2816 0.3748
vn -0.9605 0.2783 -0.0000
vn -0.1353 0.7888 0.5996
vn 0.8659 0.2731 0.4191
vn 0.4652 0.8498 0.2479
vn -0.2484 0.2765 0.9284
vn 0.5736 0.3176 -0.7551
vn 0.4503 0.8412 -0.2994
vn 0.6971 0.2776 0.6611
vn -0.3823 0.3105 -0.8703
vn 0.4503 0.8412 -0.2993
vn 0.4908 0.3228 -0.8093
vn -0.3759 0.8726 -0.3118
vn -0.7536 0.2872 0.5913
vn 0.0941 0.9104 -0.4029
vn 0.9465 0.3156 0.0668
vn -0.8808 0.3208 -0.3484
vn 0.1631 0.2898 0.9431
vn 0.4529 0.8914 0.0184
vn 0.1535 0.3333 -0.9302
vn -0.7803 0.3339 -0.5289
vn -0.2587 0.9180 0.3004
vn 0.5994 0.3078 0.7389
vn 0.1038 0.9296 0.3536
vn -0.8562 0.3161 0.4086
vn 0.9287 0.3337 -0.1615
vn 0.0376 0.3057 0.9514
vn 0.3448 0.9372 0.0526
vn 0.2034 0.3494 -0.9146
vn -0.7974 0.3096 0.5180
vn 0.1556 0.9175 0.3659
vn 0.9062 0.3318 -0.2622
vn 0.0798 0.9812 -0.1756
vn 0.8934 0.3368 0.2972
vn -0.8377 0.3492 -0.4200
vn -0.3556 0.9053 -0.2321
vn 0.4211 0.3355 -0.8427
vn -0.6697 0.2974 0.6805
vn -0.5151 0.3448 -0.7847
vn -0.3159 0.9331 0.1719
vn 0.2943 0.3075 0.9049
vn -0.7464 0.3123 0.5877
vn 0.1742 0.9308 0.3213
vn 0.8681 0.3384 -0.3631
vn -0.2240 0.8911 0.3946
vn -0.8840 0.3206 -0.3401
vn 0.7274 0.3023 0.6160
vn -0.2070 0.9774 -0.0422
vn 0.2108 0.3630 -0.9076
vn -0.3555 0.3202 0.8781
vn 0.5762 0.3074 0.7573
vn 0.3275 0.9303 -0.1652
vn -0.3473 0.3429 -0.8728
vn 0.9365 0.3326 -0.1114
vn -0.0013 0.9452 -0.3266
vn -0.9374 0.3281 -0.1169
vn -0.1156 0.9819 -0.1503
vn 0.7437 0.3570 -0.5652
vn -0.8245 0.3294 0.4601
vn 0.0753 0.9888 -0.1287
vn 0.8602 0.3377 0.3821
vn -0.8076 0.3535 -0.4721
vn -0.3274 0.3609 -0.8732
vn -0.2090 0.9746 0.0809
vn 0.1814 0.3203 0.9298
vn 0.0076 0.9713 0.2379
vn -0.9333 0.3362 0.1266
vn 0.9386 0.3428 0.0397
vn 0.1689 0.9798 0.1069
vn -0.3539 0.3219 0.8781
vn 0.4719 0.3630 -0.8035
vn 0.6182 0.3281 0.7143
vn 0.1497 0.9844 -0.0924
vn -0.5135 0.3600 -0.7789
vn 0.1945 0.9747 0.1104
vn -0.3137 0.3199 0.8940
vn 0.4496 0.3615 -0.8168
vn -0.9350 0.3414 -0.0963
vn -0.0431 0.9714 0.2333
vn 0.9048 0.3377 0.2594
vn -0.1030 0.9881 -0.1146
vn 0.7203 0.3600 -0.5929
vn -0.7923 0.3307 0.5128
vn -0.1785 0.3628 -0.9146
vn -0.2079 0.9771 0.0460
vn 0.0332 0.3202 0.9468
vn -0.8657 0.3483 -0.3595
vn -0.0977 0.9736 0.2062
vn 0.7974 0.3323 0.5036
vn -0.0973 0.3657 -0.9256
vn -0.1726 0.9845 0.0296
vn -0.0234 0.3225 0.9463
vn 0.1497 0.9733 0.1740
vn -0.6086 0.3232 0.7247
vn 0.7132 0.3572 -0.6031
vn 0.5602 0.3251 0.7619
vn 0.1803 0.9793 -0.0917
vn -0.4341 0.3595 -0.8260
vn -0.0132 0.9858 -0.1677
vn 0.9308 0.3481 -0.1114
vn -0.9400 0.3410 -0.0058
vn 0.0575 0.9857 -0.1583
vn 0.9097 0.3399 0.2387
vn -0.8695 0.3492 -0.3494
vn 0.2442 0.3208 0.9151
vn 0.2095 0.9777 -0.0167
vn -0.0978 0.3627 -0.9268
vn 0.0836 0.9721 0.2193
vn -0.8293 0.3289 0.4517
vn 0.8877 0.3506 -0.2985
vn -0.1632 0.9860 -0.0333
vn 0.2521 0.3659 -0.8958
vn -0.3662 0.3234 0.8725
vn -0.1584 0.9746 0.1584
vn -0.6705 0.3555 -0.6512
vn 0.5598 0.3257 0.7619
vn 0.1995 0.9776 0.0676
vn -0.1335 0.3200 0.9380
vn 0.2729 0.3634 -0.8908
vn -0.8785 0.3344 0.3413
vn 0.0479 0.9815 0.1856
vn 0.9119 0.3516 -0.2115
vn 0.1048 0.9810 -0.1632
vn 0.8484 0.3340 0.4107
vn -0.7752 0.3517 -0.5248
vn -0.1599 0.9793 -0.1244
vn 0.5837 0.3597 -0.7280
vn -0.6954 0.3248 0.6410
vn -0.1837 0.9795 0.0822
vn -0.3560 0.3623 -0.8614
vn 0.2275 0.3224 0.9188
vn -0.0725 0.9853 -0.1547
vn 0.8462 0.3545 -0.3979
vn -0.8968 0.3343 0.2898
vn 0.1352 0.9804 -0.1432
vn 0.7686 0.3306 0.5477
vn -0.6741 0.3548 -0.6478
vn 0.1896 0.9747 0.1186
vn -0.3527 0.3202 0.8793
vn 0.4852 0.3611 -0.7963
vn -0.1619 0.9833 0.0827
vn -0.3857 0.3632 -0.8481
vn 0.2725 0.3241 0.9059
vn 0.4399 0.3612 -0.8222
vn -0.1336 0.9891 -0.0614
vn -0.1916 0.9765 -0.0990
vn -0.5735 0.3221 0.7532
vn -0.5587 0.3253 0.7629
vn -0.0757 0.9968 -0.0240
vn 0.4548 0.3643 -0.8127
vn 0.9389 0.3442 -0.0087
vn 0.0068 0.9923 -0.1240
vn 0.0111 0.9811 -0.1933
vn -0.9311 0.3423 -0.1260
vn -0.9323 0.3451 -0.1083
vn 0.0025 0.9985 -0.0551
vn 0.9378 0.3469 0.0090
vn -0.4734 0.3285 0.8173
vn 0.1007 0.9911 0.0870
vn 0.1581 0.9794 0.1260
vn 0.5836 0.3568 -0.7295
vn 0.5689 0.3597 -0.7395
vn 0.0438 0.9979 0.0482
vn -0.4881 0.3314 0.8074
vn -0.4135 0.3607 -0.8360
vn -0.1313 0.9886 0.0741
vn -0.1957 0.9756 0.0993
vn 0.2770 0.3220 0.9053
vn 0.2936 0.3252 0.8989
vn -0.0673 0.9965 0.0488
vn -0.3970 0.3639 -0.8426
vn -0.9371 0.3334 0.1032
vn -0.0014 0.9770 0.2130
vn -0.0009 0.9597 0.2812
vn 0.9365 0.3382 0.0930
vn 0.9365 0.3426 0.0755
vn -0.0018 0.9894 0.1449
vn -0.9373 0.3377 0.0858
vn 0.5129 0.3208 0.7963
vn 0.1663 0.9839 -0.0653
vn 0.2271 0.9690 -0.0973
vn -0.3544 0.3572 -0.8641
vn -0.3701 0.3610 -0.8560
vn 0.1056 0.9938 -0.0334
vn 0.4973 0.3246 0.8046
vn -0.7935 0.3242 0.5150
vn 0.0843 0.9777 0.1921
vn 0.1156 0.9606 0.2527
vn 0.8742 0.3481 -0.3386
vn 0.8663 0.3524 -0.3542
vn 0.0531 0.9899 0.1315
vn -0.8016 0.3284 0.4995
vn -0.0888 0.3594 -0.9290
vn -0.1927 0.9810 0.0223
vn -0.2612 0.9650 0.0218
vn -0.0935 0.3159 0.9442
vn -0.0759 0.3199 0.9444
vn -0.1243 0.9920 0.0227
vn -0.0712 0.3634 -0.9289
vn 0.8466 0.3536 -0.3977
vn -0.0525 0.9930 -0.1063
vn -0.0775 0.9822 -0.1711
vn -0.9006 0.3336 0.2785
vn -0.8943 0.3363 0.2951
vn -0.0276 0.9987 -0.0419
vn 0.8531 0.3563 -0.3812
vn -0.8065 0.3576 -0.4708
vn -0.0672 0.9898 0.1256
vn -0.1069 0.9774 0.1824
vn 0.7320 0.3264 0.5980
vn 0.7422 0.3294 0.5836
vn -0.0278 0.9972 0.0692
vn -0.7964 0.3606 -0.4854
vn 0.0083 0.3197 0.9475
vn 0.1445 0.9889 0.0334
vn 0.2135 0.9762 0.0379
vn 0.1406 0.3634 -0.9210
vn 0.1229 0.3666 -0.9222
vn 0.0758 0.9967 0.0287
vn -0.0094 0.3229 0.9464
vn 0.8260 0.3325 0.4552
vn 0.0830 0.9907 -0.1075
vn 0.1208 0.9788 -0.1656
vn -0.7417 0.3524 -0.5706
vn -0.7515 0.3554 -0.5558
vn 0.0453 0.9977 -0.0498
vn 0.8164 0.3354 0.4701
vn -0.6893 0.3243 0.6478
vn 0.0938 0.9849 0.1455
vn 0.1365 0.9703 0.1995
vn 0.7845 0.3547 -0.5086
vn 0.7737 0.3584 -0.5225
vn 0.0514 0.9945 0.0917
vn -0.7003 0.3279 0.6340
vn -0.8941 0.3461 -0.2842
vn -0.0593 0.9855 0.1588
vn -0.0860 0.9712 0.2222
vn 0.8342 0.3335 0.4392
vn 0.8411 0.3371 0.4230
vn -0.0327 0.9949 0.0955
vn -0.8874 0.3497 -0.3005
vn 0.7108 0.3643 -0.6017
vn -0.0789 0.9943 -0.0712
vn -0.1202 0.9846 -0.1273
vn -0.7947 0.3246 0.5130
vn -0.7841 0.3270 0.5274
vn -0.0379 0.9992 -0.0156
vn 0.7215 0.3667 -0.5873
vn 0.1124 0.3208 0.9405
vn 0.1361 0.9906 0.0170
vn 0.2053 0.9786 0.0137
vn 0.0308 0.3640 -0.9309
vn 0.0130 0.3670 -0.9301
vn 0.0672 0.9975 0.0201
vn 0.0946 0.3237 0.9414
vn 0.9151 0.3351 0.2245
vn 0.0590 0.9858 -0.1573
vn 0.0811 0.9716 -0.2225
vn -0.8585 0.3448 -0.3797
vn -0.8642 0.3483 -0.3630
vn 0.0369 0.9950 -0.0923
vn 0.9095 0.3386 0.2412
vn -0.2277 0.3585 -0.9053
vn -0.1906 0.9804 0.0507
vn -0.2584 0.9642 0.0604
vn 0.0474 0.3162 0.9475
vn 0.0648 0.3202 0.9451
vn -0.1230 0.9916 0.0409
vn -0.2104 0.3626 -0.9079
vn -0.6308 0.3526 -0.6912
vn -0.1553 0.9785 0.1360
vn -0.2104 0.9616 0.1764
vn 0.4840 0.3203 0.8143
vn 0.4982 0.3246 0.8040
vn -0.1004 0.9904 0.0955
vn -0.6168 0.3568 -0.7016
vn 0.9093 0.3457 -0.2318
vn -0.0330 0.9857 -0.1650
vn -0.0440 0.9715 -0.2330
vn -0.9400 0.3341 0.0693
vn -0.9372 0.3377 0.0868
vn -0.0220 0.9950 -0.0972
vn 0.9122 0.3492 -0.2144
vn 0.5380 0.3256 0.7776
vn 0.1170 0.9920 -0.0475
vn 0.1766 0.9808 -0.0830
vn -0.4148 0.3607 -0.8354
vn -0.4301 0.3635 -0.8264
vn 0.0576 0.9983 -0.0123
vn 0.5227 0.3284 0.7867
vn 0.3401 0.3695 -0.8647
vn -0.1143 0.9932 -0.0241
vn -0.1770 0.9827 -0.0542
vn -0.4635 0.3181 0.8270
vn -0.4475 0.3207 0.8348
vn -0.0520 0.9986 0.0056
vn 0.3562 0.3721 -0.8571
vn -0.9265 0.3354 0.1704
vn 0.0113 0.9855 0.1696
vn 0.0178 0.9711 0.2381
vn 0.9389 0.3441 -0.0043
vn 0.9374 0.3477 -0.0218
vn 0.0049 0.9949 0.1012
vn -0.9283 0.3390 0.1528
vn -0.3072 0.3194 0.8964
vn 0.1402 0.9864 0.0858
vn 0.2034 0.9725 0.1134
vn 0.4490 0.3611 -0.8173
vn 0.4329 0.3645 -0.8245
vn 0.0773 0.9953 0.0583
vn -0.3234 0.3229 0.8895
vn -0.7860 0.3509 -0.5089
vn -0.0987 0.9844 0.1455
vn -0.1413 0.9697 0.1995
vn 0.6875 0.3276 0.6481
vn 0.6985 0.3313 0.6343
vn -0.0563 0.9942 0.0916
vn -0.7752 0.3546 -0.5228
vn 0.0710 0.3634 -0.9289
vn -0.1479 0.9890 -0.0001
vn -0.2162 0.9763 -0.0112
vn -0.2217 0.3197 0.9212
vn -0.2043 0.3229 0.9241
vn -0.0799 0.9967 0.0109
vn 0.0885 0.3666 -0.9262
vn 0.7606 0.3376 0.5546
vn 0.0710 0.9948 -0.0736
vn 0.1154 0.9851 -0.1272
vn -0.6801 0.3517 -0.6432
vn -0.6916 0.3541 -0.6296
vn 0.0268 0.9994 -0.0205
vn 0.7492 0.3400 0.5684
vn -0.8801 0.3323 0.3391
vn 0.0363 0.9871 0.1561
vn 0.0557 0.9734 0.2223
vn 0.9189 0.3488 -0.1841
vn 0.9140 0.3523 -0.2011
vn 0.0170 0.9958 0.0901
vn -0.8852 0.3357 0.3222
vn 0.0061 0.3160 0.9487
vn 0.1871 0.9815 0.0397
vn 0.2554 0.9658 0.0454
vn 0.1722 0.3598 -0.9170
vn 0.1547 0.3637 -0.9186
vn 0.1190 0.9923 0.0338
vn -0.0114 0.3200 0.9474
vn 0.8326 0.3501 -0.4292
vn -0.0742 0.9854 -0.1534
vn -0.1000 0.9710 -0.2172
vn -0.9024 0.3294 0.2776
vn -0.8959 0.3330 0.2940
vn -0.0484 0.9948 -0.0898
vn 0.8393 0.3536 -0.4128
vn 0.5160 0.3574 -0.7785
vn -0.1507 0.9839 -0.0965
vn -0.2040 0.9689 -0.1398
vn -0.6584 0.3206 0.6810
vn -0.6448 0.3244 0.6922
vn -0.0974 0.9938 -0.0533
vn 0.5297 0.3611 -0.7674
vn 0.4617 0.3200 0.8273
vn 0.1715 0.9837 -0.0544
vn 0.2342 0.9687 -0.0825
vn -0.2983 0.3579 -0.8849
vn -0.3144 0.3616 -0.8777
vn 0.1090 0.9937 -0.0264
vn 0.4456 0.3237 0.8346
vn -0.6091 0.3240 0.7239
vn 0.0960 0.9880 0.1206
vn 0.1452 0.9748 0.1691
vn 0.7103 0.3581 -0.6060
vn 0.6978 0.3614 -0.6185
vn 0.0471 0.9963 0.0723
vn -0.6217 0.3273 0.7116
vn 0.9301 0.3482 0.1168
vn 0.0149 0.9952 -0.0971
vn 0.0279 0.9858 -0.1656
vn -0.9107 0.3416 -0.2322
vn -0.9141 0.3439 -0.2147
vn 0.0020 0.9996 -0.0292
vn 0.9269 0.3505 0.1344
vn -0.3925 0.3604 -0.8462
vn -0.1408 0.9873 0.0734
vn -0.2057 0.9738 0.0967
vn 0.2491 0.3211 0.9137
vn 0.2657 0.3244 0.9078
vn -0.0762 0.9958 0.0500
vn -0.3759 0.3637 -0.8523
vn -0.0352 0.9733 0.2268
vn -0.9374 0.3414 -0.0694
vn 0.9127 0.3390 0.2280
vn -0.9382 0.3402 -0.0633
vn -0.0272 0.9839 0.1768
vn -0.0381 0.9689 0.2447
vn 0.9117 0.3378 0.2340
vn 0.9146 0.3416 0.2167
vn -0.0163 0.9939 0.1091
vn -0.9355 0.3439 -0.0807
vn 0.5994 0.3079 0.7389
vn -0.8036 0.0021 0.5951
vn 0.1134 -0.0049 0.9935
vn -0.0021 0.9996 0.0266
vn 0.1105 0.5667 0.8165
vn -0.7441 0.3660 0.5588
vn 0.9170 0.0109 0.3988
vn 0.8471 0.3742 0.3773
vn 0.8035 0.0337 -0.5943
vn 0.6643 0.5872 -0.4625
vn -0.1135 0.0407 -0.9927
vn -0.1058 0.4017 -0.9096
vn -0.9171 0.0249 -0.3980
vn -0.7439 0.5925 -0.3090
vn -0.1324 0.1191 -0.9840
vn -0.1836 0.1229 -0.9753
vn -0.8116 0.0811 0.5786
vn 0.9526 0.1045 0.2855
vn 0.8523 0.0923 0.5149
vn -0.8686 0.0616 0.4917
vn -0.2084 -0.9753 -0.0731
vn 0.1981 -0.9727 -0.1209
vn 0.5926 -0.0472 0.8041
vn 0.2829 0.9244 -0.2557
vn -0.3606 -0.0077 -0.9327
vn 0.9183 -0.3745 -0.1286
vn 0.2486 -0.9486 -0.1957
vn 0.8603 0.0746 0.5044
vn -0.4097 -0.6491 0.6410
vn -0.9844 -0.1130 -0.1347
vn -0.1895 0.8527 0.4868
vn 0.0716 -0.9749 0.2108
vn -0.1994 -0.9737 -0.1103
vn -0.5492 -0.0264 0.8353
vn 0.2149 -0.9741 0.0697
vn 0.2362 0.0175 -0.9716
vn -0.4259 0.8899 -0.1635
vn -0.7609 -0.5501 -0.3441
vn 0.7027 -0.6498 0.2897
vn -0.6128 -0.6565 0.4398
vn -0.0851 -0.6271 -0.7743
vn 0.0025 -0.9997 -0.0232
s 1
f 1/1/1 3/2/2 4/3/1
f 5/4/3 3/2/2 2/5/2
f 8/6/4 10/7/5 7/8/5
f 11/9/6 9/10/4 8/6/4
f 13/11/7 15/12/8 16/13/7
f 17/14/9 15/12/8 14/15/8
f 20/16/10 22/17/11 19/18/11
f 20/16/10 24/19/12 21/20/10
f 26/21/13 28/22/14 25/23/14
f 26/21/13 30/24/15 27/25/16
f 31/26/17 33/27/18 34/28/17
f 35/29/19 33/27/18 32/30/18
f 38/31/20 40/32/21 37/33/21
f 38/31/20 42/34/22 39/35/20
f 43/36/23 45/37/24 46/38/23
f 44/39/24 48/40/25 45/37/24
f 49/41/26 51/42/27 52/43/26
f 53/44/28 51/42/27 50/45/27
f 56/46/29 58/47/30 55/48/30
f 56/46/29 60/49/31 57/50/29
f 61/51/32 63/52/33 64/53/32
f 65/54/34 63/52/33 62/55/33
f 67/56/35 69/57/36 70/58/35
f 71/59/37 69/57/36 68/60/36
f 74/61/38 76/62/39 73/63/39
f 74/61/38 78/64/40 75/65/38
f 80/66/41 82/67/42 79/68/42
f 80/66/41 84/69/43 81/70/41
f 85/71/44 87/72/45 88/73/44
f 89/74/46 87/72/45 86/75/45
f 91/76/47 93/77/48 94/78/47
f 95/79/49 93/77/48 92/80/48
f 98/81/50 100/82/51 97/83/51
f 98/81/50 102/84/52 99/85/50
f 104/86/53 106/87/54 103/88/54
f 104/86/53 108/89/55 105/90/53
f 109/91/56 111/92/57 112/93/56
f 113/94/58 111/92/57 110/95/57
f 115/96/59 117/97/60 118/98/59
f 119/99/61 117/97/60 116/100/60
f 122/101/62 124/102/63 121/103/63
f 122/101/62 126/104/64 123/105/62
f 128/106/65 130/107/66 127/108/66
f 128/106/65 132/109/67 129/110/65
f 133/111/68 135/112/69 136/113/68
f 134/114/69 138/115/70 135/112/69
f 140/116/71 142/117/72 139/118/72
f 140/116/71 144/119/73 141/120/71
f 146/121/74 148/122/75 145/123/75
f 146/121/74 150/124/76 147/125/74
f 151/126/77 153/127/78 154/128/77
f 155/129/79 153/127/78 152/130/78
f 158/131/80 160/132/81 157/133/81
f 158/131/80 162/134/82 159/135/80
f 163/136/83 165/137/84 166/138/83
f 167/139/85 165/137/84 164/140/84
f 170/141/86 172/142/87 169/143/87
f 173/144/88 171/145/86 170/141/86
f 175/146/89 177/147/90 178/148/89
f 179/149/91 177/147/90 176/150/90
f 181/151/92 183/152/93 184/153/92
f 182/154/93 186/155/94 183/152/93
f 187/156/95 189/157/96 190/158/95
f 191/159/97 189/157/96 188/160/96
f 194/161/98 196/162/99 193/163/99
f 197/164/100 195/165/98 194/161/98
f 199/166/101 201/167/102 202/168/101
f 200/169/102 204/170/103 201/167/102
f 206/171/104 208/172/105 205/173/105
f 206/171/104 210/174/106 207/175/104
f 212/176/107 214/177/108 211/178/108
f 212/176/107 216/179/109 213/180/107
f 217/181/110 219/182/111 220/183/110
f 218/184/111 222/185/112 219/182/111
f 224/186/113 226/187/114 223/188/114
f 224/186/113 228/189/115 225/190/113
f 230/191/116 232/192/117 229/193/117
f 230/191/116 234/194/118 231/195/116
f 236/196/119 238/197/120 235/198/120
f 236/196/119 240/199/121 237/200/119
f 242/201/122 244/202/123 241/203/123
f 242/201/122 246/204/124 243/205/122
f 247/206/125 249/207/126 250/208/125
f 251/209/127 249/207/126 248/210/126
f 254/211/128 256/212/129 253/213/129
f 257/214/130 255/215/128 254/211/128
f 260/216/131 262/217/132 259/218/132
f 263/219/133 261/220/131 260/216/131
f 266/221/134 268/222/135 265/223/135
f 266/221/134 270/224/136 267/225/134
f 272/226/137 274/227/138 271/228/138
f 275/229/139 273/230/137 272/226/137
f 278/231/140 280/232/141 277/233/141
f 278/231/140 282/234/142 279/235/140
f 284/236/143 286/237/144 283/238/144
f 284/236/143 288/239/145 285/240/143
f 290/241/146 292/242/147 289/243/147
f 290/241/146 294/244/148 291/245/146
f 295/246/149 297/247/150 298/248/151
f 300/249/152 297/247/150 299/250/153
f 301/251/154 297/247/150 296/252/155
f 299/250/153 297/247/150 301/251/154
f 302/253/156 304/254/157 305/255/158
f 307/256/159 304/254/157 306/257/160
f 308/258/161 304/254/157 303/259/162
f 306/257/160 304/254/157 308/258/161
f 309/260/163 311/261/164 312/262/165
f 314/263/166 311/261/164 313/264/167
f 315/265/168 311/261/164 310/266/169
f 313/264/167 311/261/164 315/265/168
f 316/267/170 318/268/171 319/269/172
f 321/270/173 318/268/171 320/271/174
f 322/272/175 318/268/171 317/273/176
f 320/271/174 318/268/171 322/272/175
f 323/274/177 325/275/178 326/276/179
f 328/277/180 325/275/178 327/278/181
f 329/279/182 325/275/178 324/280/183
f 327/278/181 325/275/178 329/279/182
f 330/281/184 332/282/185 333/283/186
f 335/284/187 332/282/185 334/285/188
f 336/286/189 332/282/185 331/287/190
f 334/285/188 332/282/185 336/286/189
f 337/288/191 339/289/192 340/290/193
f 342/291/194 339/289/192 341/292/195
f 343/293/196 339/289/192 338/294/197
f 341/292/195 339/289/192 343/293/196
f 344/295/198 346/296/199 347/297/200
f 349/298/201 346/296/199 348/299/202
f 350/300/203 346/296/199 345/301/204
f 348/299/202 346/296/199 350/300/203
f 351/302/205 353/303/206 354/304/207
f 356/305/208 353/303/206 355/306/209
f 357/307/210 353/303/206 352/308/211
f 355/306/209 353/303/206 357/307/210
f 358/309/212 360/310/213 361/311/214
f 363/312/215 360/310/213 362/313/216
f 364/314/217 360/310/213 359/315/218
f 362/313/216 360/310/213 364/314/217
f 365/316/219 367/317/220 368/318/221
f 370/319/222 367/317/220 369/320/223
f 371/321/224 367/317/220 366/322/225
f 369/320/223 367/317/220 371/321/224
f 372/323/226 374/324/227 375/325/228
f 377/326/229 374/324/227 376/327/230
f 378/328/231 374/324/227 373/329/232
f 376/327/230 374/324/227 378/328/231
f 379/330/233 381/331/234 382/332/235
f 384/333/236 381/331/234 383/334/237
f 385/335/238 381/331/234 380/336/239
f 383/334/237 381/331/234 385/335/238
f 386/337/240 388/338/241 389/339/242
f 391/340/243 388/338/241 390/341/244
f 392/342/245 388/338/241 387/343/246
f 390/341/244 388/338/241 392/342/245
f 393/344/247 395/345/248 396/346/249
f 398/347/250 395/345/248 397/348/251
f 399/349/252 395/345/248 394/350/253
f 397/348/251 395/345/248 399/349/252
f 400/351/254 402/352/255 403/353/256
f 405/354/257 402/352/255 404/355/258
f 406/356/259 402/352/255 401/357/260
f 404/355/258 402/352/255 406/356/259
f 407/358/261 409/359/262 410/360/263
f 412/361/264 409/359/262 411/362/265
f 413/363/266 409/359/262 408/364/267
f 411/362/265 409/359/262 413/363/266
f 414/365/268 416/366/269 417/367/270
f 419/368/271 416/366/269 418/369/272
f 420/370/273 416/366/269 415/371/274
f 418/369/272 416/366/269 420/370/273
f 421/372/275 423/373/276 424/374/277
f 426/375/278 423/373/276 425/376/279
f 427/377/280 423/373/276 422/378/281
f 425/376/279 423/373/276 427/377/280
f 428/379/282 430/380/283 431/381/284
f 433/382/285 430/380/283 432/383/286
f 434/384/287 430/380/283 429/385/288
f 432/383/286 430/380/283 434/384/287
f 435/386/289 437/387/290 438/388/291
f 440/389/292 437/387/290 439/390/293
f 441/391/294 437/387/290 436/392/295
f 439/390/293 437/387/290 441/391/294
f 442/393/296 444/394/297 445/395/298
f 447/396/299 444/394/297 446/397/300
f 448/398/301 444/394/297 443/399/302
f 446/397/300 444/394/297 448/398/301
f 449/400/303 451/401/304 452/402/305
f 454/403/306 451/401/304 453/404/307
f 455/405/308 451/401/304 450/406/309
f 453/404/307 451/401/304 455/405/308
f 456/407/310 458/408/311 459/409/312
f 461/410/313 458/408/311 460/411/314
f 462/412/315 458/408/311 457/413/316
f 460/411/314 458/408/311 462/412/315
f 463/414/317 465/415/318 466/416/319
f 468/417/320 465/415/318 467/418/321
f 469/419/322 465/415/318 464/420/323
f 467/418/321 465/415/318 469/419/322
f 470/421/324 472/422/325 473/423/326
f 475/424/327 472/422/325 474/425/328
f 476/426/329 472/422/325 471/427/330
f 474/425/328 472/422/325 476/426/329
f 477/428/331 479/429/332 480/430/333
f 482/431/334 479/429/332 481/432/335
f 483/433/336 479/429/332 478/434/337
f 481/432/335 479/429/332 483/433/336
f 484/435/338 486/436/339 487/437/340
f 489/438/341 486/436/339 488/439/342
f 490/440/343 486/436/339 485/441/344
f 488/439/342 486/436/339 490/440/343
f 491/442/345 493/443/346 494/444/347
f 496/445/348 493/443/346 495/446/349
f 497/447/350 493/443/346 492/448/351
f 495/446/349 493/443/346 497/447/350
f 498/449/352 500/450/353 501/451/354
f 503/452/355 500/450/353 502/453/356
f 504/454/357 500/450/353 499/455/358
f 502/453/356 500/450/353 504/454/357
f 505/456/359 507/457/360 508/458/361
f 510/459/362 507/457/360 509/460/363
f 511/461/364 507/457/360 506/462/365
f 509/460/363 507/457/360 511/461/364
f 512/463/366 514/464/367 515/465/368
f 517/466/369 514/464/367 516/467/370
f 518/468/371 514/464/367 513/469/372
f 516/467/370 514/464/367 518/468/371
f 519/470/373 521/471/374 522/472/375
f 524/473/376 521/471/374 523/474/377
f 525/475/378 521/471/374 520/476/379
f 523/474/377 521/471/374 525/475/378
f 526/477/380 528/478/381 529/479/382
f 531/480/383 528/478/381 530/481/384
f 532/482/385 528/478/381 527/483/386
f 530/481/384 528/478/381 532/482/385
f 533/484/387 535/485/388 536/486/389
f 538/487/390 535/485/388 537/488/391
f 539/489/392 535/485/388 534/490/393
f 537/488/391 535/485/388 539/489/392
f 541/491/394 543/492/395 540/493/395
f 541/491/394 545/494/396 542/495/394
f 546/496/397 548/497/398 549/498/399
f 551/499/400 548/497/398 550/500/401
f 552/501/402 548/497/398 547/502/403
f 550/500/401 548/497/398 552/501/402
f 1/1/1 2/5/2 3/2/2
f 5/4/3 6/503/3 3/2/2
f 8/6/4 9/10/4 10/7/5
f 11/9/6 12/504/6 9/10/4
f 13/11/7 14/15/8 15/12/8
f 17/14/9 18/505/9 15/12/8
f 20/16/10 21/20/10 22/17/11
f 20/16/10 23/506/12 24/19/12
f 26/21/13 27/25/16 28/22/14
f 26/21/13 29/507/15 30/24/15
f 31/26/17 32/30/18 33/27/18
f 35/29/19 36/508/19 33/27/18
f 38/31/20 39/35/20 40/32/21
f 38/31/20 41/509/22 42/34/22
f 43/36/23 44/39/24 45/37/24
f 44/39/24 47/510/25 48/40/25
f 49/41/26 50/45/27 51/42/27
f 53/44/28 54/511/404 51/42/27
f 56/46/29 57/50/29 58/47/30
f 56/46/29 59/512/31 60/49/31
f 61/51/32 62/55/33 63/52/33
f 65/54/34 66/513/34 63/52/33
f 67/56/35 68/60/36 69/57/36
f 71/59/37 72/514/37 69/57/36
f 74/61/38 75/65/38 76/62/39
f 74/61/38 77/515/40 78/64/40
f 80/66/41 81/70/41 82/67/42
f 80/66/41 83/516/43 84/69/43
f 85/71/44 86/75/45 87/72/45
f 89/74/46 90/517/46 87/72/45
f 91/76/47 92/80/48 93/77/48
f 95/79/49 96/518/49 93/77/48
f 98/81/50 99/85/50 100/82/51
f 98/81/50 101/519/52 102/84/52
f 104/86/53 105/90/53 106/87/54
f 104/86/53 107/520/55 108/89/55
f 109/91/56 110/95/57 111/92/57
f 113/94/58 114/521/58 111/92/57
f 115/96/59 116/100/60 117/97/60
f 119/99/61 120/522/61 117/97/60
f 122/101/62 123/105/62 124/102/63
f 122/101/62 125/523/64 126/104/64
f 128/106/65 129/110/65 130/107/66
f 128/106/65 131/524/67 132/109/67
f 133/111/68 134/114/69 135/112/69
f 134/114/69 137/525/70 138/115/70
f 140/116/71 141/120/71 142/117/72
f 140/116/71 143/526/73 144/119/73
f 146/121/74 147/125/74 148/122/75
f 146/121/74 149/527/76 150/124/76
f 151/126/77 152/130/78 153/127/78
f 155/129/79 156/528/79 153/127/78
f 158/131/80 159/135/80 160/132/81
f 158/131/80 161/529/82 162/134/82
f 163/136/83 164/140/84 165/137/84
f 167/139/85 168/530/85 165/137/84
f 170/141/86 171/145/86 172/142/87
f 173/144/88 174/531/88 171/145/86
f 175/146/89 176/150/90 177/147/90
f 179/149/91 180/532/91 177/147/90
f 181/151/92 182/154/93 183/152/93
f 182/154/93 185/533/94 186/155/94
f 187/156/95 188/160/96 189/157/96
f 191/159/97 192/534/97 189/157/96
f 194/161/98 195/165/98 196/162/99
f 197/164/100 198/535/100 195/165/98
f 199/166/101 200/169/102 201/167/102
f 200/169/102 203/536/103 204/170/103
f 206/171/104 207/175/104 208/172/105
f 206/171/104 209/537/106 210/174/106
f 212/176/107 213/180/107 214/177/108
f 212/176/107 215/538/109 216/179/109
f 217/181/110 218/184/111 219/182/111
f 218/184/111 221/539/112 222/185/112
f 224/186/113 225/190/113 226/187/114
f 224/186/113 227/540/115 228/189/115
f 230/191/116 231/195/116 232/192/117
f 230/191/116 233/541/118 234/194/118
f 236/196/119 237/200/119 238/197/120
f 236/196/119 239/542/121 240/199/121
f 242/201/122 243/205/122 244/202/123
f 242/201/122 245/543/124 246/204/124
f 247/206/125 248/210/126 249/207/126
f 251/209/127 252/544/127 249/207/126
f 254/211/128 255/215/128 256/212/129
f 257/214/130 258/545/130 255/215/128
f 260/216/131 261/220/131 262/217/132
f 263/219/133 264/546/133 261/220/131
f 266/221/134 267/225/134 268/222/135
f 266/221/134 269/547/136 270/224/136
f 272/226/137 273/230/137 274/227/138
f 275/229/139 276/548/139 273/230/137
f 278/231/140 279/235/140 280/232/141
f 278/231/140 281/549/142 282/234/142
f 284/236/143 285/240/143 286/237/144
f 284/236/143 287/550/145 288/239/145
f 290/241/146 291/245/146 292/242/147
f 290/241/146 293/551/148 294/244/148
f 295/246/149 296/252/155 297/247/150
f 300/249/152 298/248/151 297/247/150
f 302/253/156 303/259/162 304/254/157
f 307/256/159 305/255/158 304/254/157
f 309/260/163 310/266/169 311/261/164
f 314/263/166 312/262/165 311/261/164
f 316/267/170 317/273/176 318/268/171
f 321/270/173 319/269/172 318/268/171
f 323/274/177 324/280/183 325/275/178
f 328/277/180 326/276/179 325/275/178
f 330/281/184 331/287/190 332/282/185
f 335/284/187 333/283/186 332/282/185
f 337/288/191 338/294/197 339/289/192
f 342/291/194 340/290/193 339/289/192
f 344/295/198 345/301/204 346/296/199
f 349/298/201 347/297/200 346/296/199
f 351/302/205 352/308/211 353/303/206
f 356/305/208 354/304/207 353/303/206
f 358/309/212 359/315/218 360/310/213
f 363/312/215 361/311/214 360/310/213
f 365/316/219 366/322/225 367/317/220
f 370/319/222 368/318/221 367/317/220
f 372/323/226 373/329/232 374/324/227
f 377/326/229 375/325/228 374/324/227
f 379/330/233 380/336/239 381/331/234
f 384/333/236 382/332/235 381/331/234
f 386/337/240 387/343/246 388/338/241
f 391/340/243 389/339/242 388/338/241
f 393/344/247 394/350/253 395/345/248
f 398/347/250 396/346/249 395/345/248
f 400/351/254 401/357/260 402/352/255
f 405/354/257 403/353/256 402/352/255
f 407/358/261 408/364/267 409/359/262
f 412/361/264 410/360/263 409/359/262
f 414/365/268 415/371/274 416/366/269
f 419/368/271 417/367/270 416/366/269
f 421/372/275 422/378/281 423/373/276
f 426/375/278 424/374/277 423/373/276
f 428/379/282 429/385/288 430/380/283
f 433/382/285 431/381/284 430/380/283
f 435/386/289 436/392/295 437/387/290
f 440/389/292 438/388/291 437/387/290
f 442/393/296 443/399/302 444/394/297
f 447/396/299 445/395/298 444/394/297
f 449/400/303 450/406/309 451/401/304
f 454/403/306 452/402/305 451/401/304
f 456/407/310 457/413/316 458/408/311
f 461/410/313 459/409/312 458/408/311
f 463/414/317 464/420/323 465/415/318
f 468/417/320 466/416/319 465/415/318
f 470/421/324 471/427/330 472/422/325
f 475/424/327 473/423/326 472/422/325
f 477/428/331 478/434/337 479/429/332
f 482/431/334 480/430/333 479/429/332
f 484/435/338 485/441/344 486/436/339
f 489/438/341 487/437/340 486/436/339
f 491/442/345 492/448/351 493/443/346
f 496/445/348 494/444/347 493/443/346
f 498/449/352 499/455/358 500/450/353
f 503/452/355 501/451/354 500/450/353
f 505/456/359 506/462/365 507/457/360
f 510/459/362 508/458/361 507/457/360
f 512/463/366 513/469/372 514/464/367
f 517/466/369 515/465/368 514/464/367
f 519/470/373 520/476/379 521/471/374
f 524/473/376 522/472/375 521/471/374
f 526/477/380 527/483/386 528/478/381
f 531/480/383 529/479/382 528/478/381
f 533/484/387 534/490/393 535/485/388
f 538/487/390 536/486/389 535/485/388
f 541/491/394 542/495/394 543/492/395
f 541/491/394 544/552/396 545/494/396
f 546/496/397 547/502/403 548/497/398
f 551/499/400 549/498/399 548/497/398
f 553/553/405 554/554/406 555/555/407
f 557/556/408 553/553/405 556/557/409
f 558/558/410 555/555/407 554/554/406
f 558/559/410 557/560/408 559/561/411
f 560/562/412 555/555/407 558/558/410
f 560/562/412 559/561/411 561/563/413
f 562/564/414 555/555/407 560/562/412
f 563/565/415 560/562/412 561/563/413
f 564/566/416 555/555/407 562/564/414
f 564/566/416 563/565/415 565/567/417
f 553/553/405 555/555/407 564/566/416
f 553/553/405 565/567/417 556/557/409
f 566/568/418 565/567/417 563/565/415
f 567/569/419 566/568/418 563/565/415
f 568/570/420 556/557/409 565/567/417
f 569/571/421 561/563/413 559/561/411
f 570/572/422 569/571/421 559/561/411
f 567/569/419 563/565/415 561/563/413
f 571/573/423 557/560/408 556/574/409
f 568/570/420 571/575/423 556/557/409
f 570/572/422 559/561/411 557/560/408
f 567/576/419 574/577/424 572/578/425
f 572/579/425 575/580/426 569/581/421
f 567/576/419 576/582/427 573/583/428
f 561/584/413 575/580/426 576/582/427
f 576/582/427 575/580/426 577/585/429
f 573/583/428 576/582/427 577/585/429
f 575/580/426 574/586/424 577/585/429
f 574/577/424 573/583/428 577/585/429
f 578/587/430 579/588/431 580/589/432
f 581/590/433 578/591/430 580/589/432
f 579/588/431 582/592/434 580/589/432
f 582/592/434 581/590/433 580/589/432
f 571/593/423 582/592/434 557/594/408
f 570/595/422 582/592/434 579/588/431
f 583/596/435 581/590/433 571/593/423
f 570/595/422 578/587/430 583/597/435
f 584/598/436 585/599/437 586/600/438
f 584/601/436 587/602/439 566/603/418
f 568/604/420 588/605/440 585/599/437
f 566/603/418 588/605/440 565/606/417
f 588/605/440 587/602/439 589/607/441
f 585/599/437 588/605/440 589/607/441
f 587/602/439 586/608/438 589/607/441
f 586/600/438 585/599/437 589/607/441
f 570/572/422 590/609/442 569/571/421
f 568/570/420 591/610/443 571/575/423
f 567/569/419 592/611/444 566/568/418
f 569/571/421 590/609/442 572/612/425
f 570/572/422 583/613/435 590/609/442
f 571/573/423 591/614/443 583/613/435
f 568/570/420 584/615/436 591/610/443
f 566/568/418 592/611/444 584/615/436
f 567/569/419 572/612/425 592/611/444
f 592/611/444 572/612/425 593/616/445
f 584/615/436 592/611/444 593/616/445
f 591/610/443 584/615/436 593/616/445
f 583/613/435 591/614/443 593/616/445
f 590/609/442 583/613/435 593/616/445
f 572/612/425 590/609/442 593/616/445
f 557/556/408 554/554/406 553/553/405
f 558/559/410 554/617/406 557/560/408
f 560/562/412 558/559/410 559/561/411
f 563/565/415 562/564/414 560/562/412
f 564/566/416 562/564/414 563/565/415
f 553/553/405 564/566/416 565/567/417
f 567/576/419 573/583/428 574/577/424
f 572/579/425 574/586/424 575/580/426
f 567/576/419 561/584/413 576/582/427
f 561/584/413 569/581/421 575/580/426
f 571/593/423 581/590/433 582/592/434
f 570/595/422 557/594/408 582/592/434
f 583/596/435 578/591/430 581/590/433
f 570/595/422 579/588/431 578/587/430
f 584/598/436 568/604/420 585/599/437
f 584/601/436 586/608/438 587/602/439
f 568/604/420 565/606/417 588/605/440
f 566/603/418 587/602/439 588/605/440
