# Blender v2.81 (sub 16) OBJ File: ''
# www.blender.org
mtllib road.mtl
o Plane
v -11.216293 0.000000 0.875482
v 11.216293 0.000000 0.875482
v -11.216293 0.000000 -1.124518
v 11.216293 0.000000 -1.124518
vt 0.000000 0.000000
vt 1.000000 0.000000
vt 1.000000 1.000000
vt 0.000000 1.000000
vn 0.0000 1.0000 0.0000
usemtl None
s off
f 1/1/1 2/2/1 4/3/1 3/4/1
